[Thu Nov 28 14:01:37.365546 2019] [php7:notice] [pid 1083] [client 127.0.0.1:41788] PHP Notice:  Undefined index: classname in /home/stepan/public/cats/App/Service/Router.php on line 58
[Thu Nov 28 14:01:37.367358 2019] [php7:error] [pid 1083] [client 127.0.0.1:41788] PHP Fatal error:  Uncaught Error: Class name must be a valid object or a string in /home/stepan/public/cats/App/Service/Router.php:58\nStack trace:\n#0 [internal function]: App\\Service\\Router::App\\Service\\{closure}(Object(Klein\\Request), Object(Klein\\Response), Object(Klein\\ServiceProvider), Object(Klein\\App), Object(Klein\\Klein), Object(Klein\\DataCollection\\RouteCollection), Array)\n#1 /home/stepan/public/cats/vendor/klein/klein/src/Klein/Klein.php(886): call_user_func(Object(Closure), Object(Klein\\Request), Object(Klein\\Response), Object(Klein\\ServiceProvider), Object(Klein\\App), Object(Klein\\Klein), Object(Klein\\DataCollection\\RouteCollection), Array)\n#2 /home/stepan/public/cats/vendor/klein/klein/src/Klein/Klein.php(588): Klein\\Klein->handleRouteCallback(Object(Klein\\Route), Object(Klein\\DataCollection\\RouteCollection), Array)\n#3 /home/stepan/public/cats/App/Service/Router.php(63): Klein\\Klein->dispatch()\n#4 /home/stepan/public/cats/App/App.php(11): App\\Service\\Router::dispatch()\n#5 /home/stepan/public/cats/index.php(11): App in /home/stepan/public/cats/vendor/klein/klein/src/Klein/Klein.php on line 954
[Thu Nov 28 14:13:44.243926 2019] [php7:notice] [pid 5115] [client 127.0.0.1:41828] PHP Notice:  Undefined index: classname in /home/stepan/public/cats/App/Service/Router.php on line 58
[Thu Nov 28 14:13:44.244918 2019] [php7:error] [pid 5115] [client 127.0.0.1:41828] PHP Fatal error:  Uncaught Error: Class name must be a valid object or a string in /home/stepan/public/cats/App/Service/Router.php:58\nStack trace:\n#0 [internal function]: App\\Service\\Router::App\\Service\\{closure}(Object(Klein\\Request), Object(Klein\\Response), Object(Klein\\ServiceProvider), Object(Klein\\App), Object(Klein\\Klein), Object(Klein\\DataCollection\\RouteCollection), Array)\n#1 /home/stepan/public/cats/vendor/klein/klein/src/Klein/Klein.php(886): call_user_func(Object(Closure), Object(Klein\\Request), Object(Klein\\Response), Object(Klein\\ServiceProvider), Object(Klein\\App), Object(Klein\\Klein), Object(Klein\\DataCollection\\RouteCollection), Array)\n#2 /home/stepan/public/cats/vendor/klein/klein/src/Klein/Klein.php(588): Klein\\Klein->handleRouteCallback(Object(Klein\\Route), Object(Klein\\DataCollection\\RouteCollection), Array)\n#3 /home/stepan/public/cats/App/Service/Router.php(63): Klein\\Klein->dispatch()\n#4 /home/stepan/public/cats/App/App.php(11): App\\Service\\Router::dispatch()\n#5 /home/stepan/public/cats/index.php(11): App in /home/stepan/public/cats/vendor/klein/klein/src/Klein/Klein.php on line 954
[Thu Nov 28 14:13:53.358992 2019] [php7:notice] [pid 5116] [client 127.0.0.1:41830] PHP Notice:  Undefined index: classname in /home/stepan/public/cats/App/Service/Router.php on line 58
[Thu Nov 28 14:13:53.359197 2019] [php7:error] [pid 5116] [client 127.0.0.1:41830] PHP Fatal error:  Uncaught Error: Class name must be a valid object or a string in /home/stepan/public/cats/App/Service/Router.php:58\nStack trace:\n#0 [internal function]: App\\Service\\Router::App\\Service\\{closure}(Object(Klein\\Request), Object(Klein\\Response), Object(Klein\\ServiceProvider), Object(Klein\\App), Object(Klein\\Klein), Object(Klein\\DataCollection\\RouteCollection), Array)\n#1 /home/stepan/public/cats/vendor/klein/klein/src/Klein/Klein.php(886): call_user_func(Object(Closure), Object(Klein\\Request), Object(Klein\\Response), Object(Klein\\ServiceProvider), Object(Klein\\App), Object(Klein\\Klein), Object(Klein\\DataCollection\\RouteCollection), Array)\n#2 /home/stepan/public/cats/vendor/klein/klein/src/Klein/Klein.php(588): Klein\\Klein->handleRouteCallback(Object(Klein\\Route), Object(Klein\\DataCollection\\RouteCollection), Array)\n#3 /home/stepan/public/cats/App/Service/Router.php(63): Klein\\Klein->dispatch()\n#4 /home/stepan/public/cats/App/App.php(11): App\\Service\\Router::dispatch()\n#5 /home/stepan/public/cats/index.php(11): App in /home/stepan/public/cats/vendor/klein/klein/src/Klein/Klein.php on line 954
[Sun Dec 01 14:34:35.321236 2019] [php7:error] [pid 1133] [client 127.0.0.1:39236] PHP Fatal error:  Uncaught InvalidArgumentException: Incorrect connection options in /home/stepan/public/cats/vendor/catfan/medoo/src/Medoo.php:275\nStack trace:\n#0 /home/stepan/public/cats/App/Service/Database.php(25): Medoo\\Medoo->__construct(Array)\n#1 /home/stepan/public/cats/App/Controller/Cats.php(12): App\\Service\\Database::getConnection()\n#2 /home/stepan/public/cats/App/Service/Router.php(25): App\\Controller\\Cats->execute()\n#3 [internal function]: App\\Service\\Router::App\\Service\\{closure}(Object(Klein\\Request), Object(Klein\\Response), Object(Klein\\ServiceProvider), Object(Klein\\App), Object(Klein\\Klein), Object(Klein\\DataCollection\\RouteCollection), Array)\n#4 /home/stepan/public/cats/vendor/klein/klein/src/Klein/Klein.php(886): call_user_func(Object(Closure), Object(Klein\\Request), Object(Klein\\Response), Object(Klein\\ServiceProvider), Object(Klein\\App), Object(Klein\\Klein), Object(Klein\\DataCollection\\RouteCollection), Array)\n#5 /home/stepan/public/cats/vendor/klein/klein/src/Klein/Klein.php(588): Klein\\Klein->handleRout in /home/stepan/public/cats/vendor/klein/klein/src/Klein/Klein.php on line 954, referer: http://cats.loc/
[Sun Dec 01 14:40:58.370010 2019] [php7:error] [pid 1134] [client 127.0.0.1:39318] PHP Fatal error:  Uncaught PDOException: SQLSTATE[HY000] [1049] Unknown database 'cats' in /home/stepan/public/cats/vendor/catfan/medoo/src/Medoo.php:323\nStack trace:\n#0 /home/stepan/public/cats/App/Service/Database.php(25): Medoo\\Medoo->__construct(Array)\n#1 /home/stepan/public/cats/App/Controller/Cats.php(12): App\\Service\\Database::getConnection()\n#2 /home/stepan/public/cats/App/Service/Router.php(25): App\\Controller\\Cats->execute()\n#3 [internal function]: App\\Service\\Router::App\\Service\\{closure}(Object(Klein\\Request), Object(Klein\\Response), Object(Klein\\ServiceProvider), Object(Klein\\App), Object(Klein\\Klein), Object(Klein\\DataCollection\\RouteCollection), Array)\n#4 /home/stepan/public/cats/vendor/klein/klein/src/Klein/Klein.php(886): call_user_func(Object(Closure), Object(Klein\\Request), Object(Klein\\Response), Object(Klein\\ServiceProvider), Object(Klein\\App), Object(Klein\\Klein), Object(Klein\\DataCollection\\RouteCollection), Array)\n#5 /home/stepan/public/cats/vendor/klein/klein/src/Klein/Klein.php(588): Klein\\Klein->hand in /home/stepan/public/cats/vendor/klein/klein/src/Klein/Klein.php on line 954, referer: http://cats.loc/
[Sun Dec 01 15:09:47.355146 2019] [php7:error] [pid 1136] [client 127.0.0.1:39374] PHP Fatal error:  Uncaught PDOException: SQLSTATE[HY000] [1049] Unknown database 'cats' in /home/stepan/public/cats/vendor/catfan/medoo/src/Medoo.php:323\nStack trace:\n#0 /home/stepan/public/cats/App/Service/Database.php(25): Medoo\\Medoo->__construct(Array)\n#1 /home/stepan/public/cats/App/Controller/Cats.php(12): App\\Service\\Database::getConnection()\n#2 /home/stepan/public/cats/App/Service/Router.php(25): App\\Controller\\Cats->execute()\n#3 [internal function]: App\\Service\\Router::App\\Service\\{closure}(Object(Klein\\Request), Object(Klein\\Response), Object(Klein\\ServiceProvider), Object(Klein\\App), Object(Klein\\Klein), Object(Klein\\DataCollection\\RouteCollection), Array)\n#4 /home/stepan/public/cats/vendor/klein/klein/src/Klein/Klein.php(886): call_user_func(Object(Closure), Object(Klein\\Request), Object(Klein\\Response), Object(Klein\\ServiceProvider), Object(Klein\\App), Object(Klein\\Klein), Object(Klein\\DataCollection\\RouteCollection), Array)\n#5 /home/stepan/public/cats/vendor/klein/klein/src/Klein/Klein.php(588): Klein\\Klein->hand in /home/stepan/public/cats/vendor/klein/klein/src/Klein/Klein.php on line 954, referer: http://cats.loc/
[Sun Dec 01 21:35:48.714238 2019] [php7:error] [pid 1135] [client 127.0.0.1:39842] PHP Fatal error:  Uncaught PDOException: SQLSTATE[HY000] [1049] Unknown database 'cats' in /home/stepan/public/cats/vendor/catfan/medoo/src/Medoo.php:323\nStack trace:\n#0 /home/stepan/public/cats/App/Service/Database.php(25): Medoo\\Medoo->__construct(Array)\n#1 /home/stepan/public/cats/App/Controller/Cats.php(12): App\\Service\\Database::getConnection()\n#2 /home/stepan/public/cats/App/Service/Router.php(25): App\\Controller\\Cats->execute()\n#3 [internal function]: App\\Service\\Router::App\\Service\\{closure}(Object(Klein\\Request), Object(Klein\\Response), Object(Klein\\ServiceProvider), Object(Klein\\App), Object(Klein\\Klein), Object(Klein\\DataCollection\\RouteCollection), Array)\n#4 /home/stepan/public/cats/vendor/klein/klein/src/Klein/Klein.php(886): call_user_func(Object(Closure), Object(Klein\\Request), Object(Klein\\Response), Object(Klein\\ServiceProvider), Object(Klein\\App), Object(Klein\\Klein), Object(Klein\\DataCollection\\RouteCollection), Array)\n#5 /home/stepan/public/cats/vendor/klein/klein/src/Klein/Klein.php(588): Klein\\Klein->hand in /home/stepan/public/cats/vendor/klein/klein/src/Klein/Klein.php on line 954, referer: http://cats.loc/
[Sun Dec 01 21:36:43.166994 2019] [php7:error] [pid 1136] [client 127.0.0.1:39852] PHP Fatal error:  Uncaught PDOException: SQLSTATE[HY000] [1049] Unknown database 'cats' in /home/stepan/public/cats/vendor/catfan/medoo/src/Medoo.php:323\nStack trace:\n#0 /home/stepan/public/cats/App/Service/Database.php(25): Medoo\\Medoo->__construct(Array)\n#1 /home/stepan/public/cats/App/Controller/Cats.php(12): App\\Service\\Database::getConnection()\n#2 /home/stepan/public/cats/App/Service/Router.php(25): App\\Controller\\Cats->execute()\n#3 [internal function]: App\\Service\\Router::App\\Service\\{closure}(Object(Klein\\Request), Object(Klein\\Response), Object(Klein\\ServiceProvider), Object(Klein\\App), Object(Klein\\Klein), Object(Klein\\DataCollection\\RouteCollection), Array)\n#4 /home/stepan/public/cats/vendor/klein/klein/src/Klein/Klein.php(886): call_user_func(Object(Closure), Object(Klein\\Request), Object(Klein\\Response), Object(Klein\\ServiceProvider), Object(Klein\\App), Object(Klein\\Klein), Object(Klein\\DataCollection\\RouteCollection), Array)\n#5 /home/stepan/public/cats/vendor/klein/klein/src/Klein/Klein.php(588): Klein\\Klein->hand in /home/stepan/public/cats/vendor/klein/klein/src/Klein/Klein.php on line 954, referer: http://cats.loc/
[Sun Dec 01 21:36:46.280541 2019] [php7:error] [pid 1136] [client 127.0.0.1:39852] PHP Fatal error:  Uncaught PDOException: SQLSTATE[HY000] [1049] Unknown database 'cats' in /home/stepan/public/cats/vendor/catfan/medoo/src/Medoo.php:323\nStack trace:\n#0 /home/stepan/public/cats/App/Service/Database.php(25): Medoo\\Medoo->__construct(Array)\n#1 /home/stepan/public/cats/App/Controller/Cats.php(12): App\\Service\\Database::getConnection()\n#2 /home/stepan/public/cats/App/Service/Router.php(25): App\\Controller\\Cats->execute()\n#3 [internal function]: App\\Service\\Router::App\\Service\\{closure}(Object(Klein\\Request), Object(Klein\\Response), Object(Klein\\ServiceProvider), Object(Klein\\App), Object(Klein\\Klein), Object(Klein\\DataCollection\\RouteCollection), Array)\n#4 /home/stepan/public/cats/vendor/klein/klein/src/Klein/Klein.php(886): call_user_func(Object(Closure), Object(Klein\\Request), Object(Klein\\Response), Object(Klein\\ServiceProvider), Object(Klein\\App), Object(Klein\\Klein), Object(Klein\\DataCollection\\RouteCollection), Array)\n#5 /home/stepan/public/cats/vendor/klein/klein/src/Klein/Klein.php(588): Klein\\Klein->hand in /home/stepan/public/cats/vendor/klein/klein/src/Klein/Klein.php on line 954, referer: http://cats.loc/
[Sun Dec 01 21:36:51.034173 2019] [php7:error] [pid 1136] [client 127.0.0.1:39852] PHP Fatal error:  Uncaught PDOException: SQLSTATE[HY000] [1049] Unknown database 'cats' in /home/stepan/public/cats/vendor/catfan/medoo/src/Medoo.php:323\nStack trace:\n#0 /home/stepan/public/cats/App/Service/Database.php(25): Medoo\\Medoo->__construct(Array)\n#1 /home/stepan/public/cats/App/Controller/Cats.php(12): App\\Service\\Database::getConnection()\n#2 /home/stepan/public/cats/App/Service/Router.php(25): App\\Controller\\Cats->execute()\n#3 [internal function]: App\\Service\\Router::App\\Service\\{closure}(Object(Klein\\Request), Object(Klein\\Response), Object(Klein\\ServiceProvider), Object(Klein\\App), Object(Klein\\Klein), Object(Klein\\DataCollection\\RouteCollection), Array)\n#4 /home/stepan/public/cats/vendor/klein/klein/src/Klein/Klein.php(886): call_user_func(Object(Closure), Object(Klein\\Request), Object(Klein\\Response), Object(Klein\\ServiceProvider), Object(Klein\\App), Object(Klein\\Klein), Object(Klein\\DataCollection\\RouteCollection), Array)\n#5 /home/stepan/public/cats/vendor/klein/klein/src/Klein/Klein.php(588): Klein\\Klein->hand in /home/stepan/public/cats/vendor/klein/klein/src/Klein/Klein.php on line 954, referer: http://cats.loc/
[Sun Dec 01 21:37:24.695103 2019] [php7:error] [pid 1134] [client 127.0.0.1:39856] PHP Fatal error:  Uncaught Error: Call to a member function select() on null in /home/stepan/public/cats/App/Service/Database.php:35\nStack trace:\n#0 /home/stepan/public/cats/App/Controller/Cats.php(13): App\\Service\\Database::catsData()\n#1 /home/stepan/public/cats/App/Service/Router.php(25): App\\Controller\\Cats->execute()\n#2 [internal function]: App\\Service\\Router::App\\Service\\{closure}(Object(Klein\\Request), Object(Klein\\Response), Object(Klein\\ServiceProvider), Object(Klein\\App), Object(Klein\\Klein), Object(Klein\\DataCollection\\RouteCollection), Array)\n#3 /home/stepan/public/cats/vendor/klein/klein/src/Klein/Klein.php(886): call_user_func(Object(Closure), Object(Klein\\Request), Object(Klein\\Response), Object(Klein\\ServiceProvider), Object(Klein\\App), Object(Klein\\Klein), Object(Klein\\DataCollection\\RouteCollection), Array)\n#4 /home/stepan/public/cats/vendor/klein/klein/src/Klein/Klein.php(588): Klein\\Klein->handleRouteCallback(Object(Klein\\Route), Object(Klein\\DataCollection\\RouteCollection), Array)\n#5 /home/stepan/public/cat in /home/stepan/public/cats/vendor/klein/klein/src/Klein/Klein.php on line 954, referer: http://cats.loc/
[Sun Dec 01 21:38:21.765785 2019] [php7:error] [pid 6070] [client 127.0.0.1:39912] PHP Fatal error:  Uncaught Error: Call to a member function select() on null in /home/stepan/public/cats/App/Service/Database.php:35\nStack trace:\n#0 /home/stepan/public/cats/App/Controller/Cats.php(13): App\\Service\\Database::catsData()\n#1 /home/stepan/public/cats/App/Service/Router.php(25): App\\Controller\\Cats->execute()\n#2 [internal function]: App\\Service\\Router::App\\Service\\{closure}(Object(Klein\\Request), Object(Klein\\Response), Object(Klein\\ServiceProvider), Object(Klein\\App), Object(Klein\\Klein), Object(Klein\\DataCollection\\RouteCollection), Array)\n#3 /home/stepan/public/cats/vendor/klein/klein/src/Klein/Klein.php(886): call_user_func(Object(Closure), Object(Klein\\Request), Object(Klein\\Response), Object(Klein\\ServiceProvider), Object(Klein\\App), Object(Klein\\Klein), Object(Klein\\DataCollection\\RouteCollection), Array)\n#4 /home/stepan/public/cats/vendor/klein/klein/src/Klein/Klein.php(588): Klein\\Klein->handleRouteCallback(Object(Klein\\Route), Object(Klein\\DataCollection\\RouteCollection), Array)\n#5 /home/stepan/public/cat in /home/stepan/public/cats/vendor/klein/klein/src/Klein/Klein.php on line 954, referer: http://cats.loc/
[Sun Dec 01 21:48:44.532198 2019] [php7:notice] [pid 1137] [client 127.0.0.1:40020] PHP Notice:  Undefined property: App\\Animals\\Cats\\Cat::$name in /home/stepan/public/cats/App/Animals/Cats/Cat.php on line 90, referer: http://cats.loc/
[Sun Dec 01 21:48:44.532298 2019] [php7:notice] [pid 1137] [client 127.0.0.1:40020] PHP Notice:  Undefined property: App\\Animals\\Cats\\Cat::$name in /home/stepan/public/cats/App/Animals/Cats/Cat.php on line 90, referer: http://cats.loc/
[Sun Dec 01 21:48:44.532325 2019] [php7:notice] [pid 1137] [client 127.0.0.1:40020] PHP Notice:  Undefined property: App\\Animals\\Cats\\Cat::$name in /home/stepan/public/cats/App/Animals/Cats/Cat.php on line 90, referer: http://cats.loc/
[Sun Dec 01 21:48:44.532346 2019] [php7:notice] [pid 1137] [client 127.0.0.1:40020] PHP Notice:  Undefined property: App\\Animals\\Cats\\Cat::$name in /home/stepan/public/cats/App/Animals/Cats/Cat.php on line 90, referer: http://cats.loc/
[Sun Dec 01 22:57:30.101364 2019] [php7:error] [pid 1135] [client 127.0.0.1:40372] PHP Fatal error:  Uncaught ParseError: syntax error, unexpected end of file in /home/stepan/public/cats/App/Controller/Cats.php:41\nStack trace:\n#0 /home/stepan/public/cats/vendor/composer/ClassLoader.php(322): Composer\\Autoload\\includeFile('/home/stepan/pu...')\n#1 [internal function]: Composer\\Autoload\\ClassLoader->loadClass('App\\\\Controller\\\\...')\n#2 /home/stepan/public/cats/App/Service/Router.php(24): spl_autoload_call('App\\\\Controller\\\\...')\n#3 [internal function]: App\\Service\\Router::App\\Service\\{closure}(Object(Klein\\Request), Object(Klein\\Response), Object(Klein\\ServiceProvider), Object(Klein\\App), Object(Klein\\Klein), Object(Klein\\DataCollection\\RouteCollection), Array)\n#4 /home/stepan/public/cats/vendor/klein/klein/src/Klein/Klein.php(886): call_user_func(Object(Closure), Object(Klein\\Request), Object(Klein\\Response), Object(Klein\\ServiceProvider), Object(Klein\\App), Object(Klein\\Klein), Object(Klein\\DataCollection\\RouteCollection), Array)\n#5 /home/stepan/public/cats/vendor/klein/klein/src/Klein/Klein.php(588): Klein\\K in /home/stepan/public/cats/vendor/klein/klein/src/Klein/Klein.php on line 954, referer: http://cats.loc/
[Sun Dec 01 22:59:01.554633 2019] [php7:error] [pid 6070] [client 127.0.0.1:40376] PHP Fatal error:  Uncaught ParseError: syntax error, unexpected end of file in /home/stepan/public/cats/App/Controller/Cats.php:41\nStack trace:\n#0 /home/stepan/public/cats/vendor/composer/ClassLoader.php(322): Composer\\Autoload\\includeFile('/home/stepan/pu...')\n#1 [internal function]: Composer\\Autoload\\ClassLoader->loadClass('App\\\\Controller\\\\...')\n#2 /home/stepan/public/cats/App/Service/Router.php(24): spl_autoload_call('App\\\\Controller\\\\...')\n#3 [internal function]: App\\Service\\Router::App\\Service\\{closure}(Object(Klein\\Request), Object(Klein\\Response), Object(Klein\\ServiceProvider), Object(Klein\\App), Object(Klein\\Klein), Object(Klein\\DataCollection\\RouteCollection), Array)\n#4 /home/stepan/public/cats/vendor/klein/klein/src/Klein/Klein.php(886): call_user_func(Object(Closure), Object(Klein\\Request), Object(Klein\\Response), Object(Klein\\ServiceProvider), Object(Klein\\App), Object(Klein\\Klein), Object(Klein\\DataCollection\\RouteCollection), Array)\n#5 /home/stepan/public/cats/vendor/klein/klein/src/Klein/Klein.php(588): Klein\\K in /home/stepan/public/cats/vendor/klein/klein/src/Klein/Klein.php on line 954, referer: http://cats.loc/
[Sun Dec 01 22:59:02.880580 2019] [php7:error] [pid 6070] [client 127.0.0.1:40376] PHP Fatal error:  Uncaught ParseError: syntax error, unexpected end of file in /home/stepan/public/cats/App/Controller/Cats.php:41\nStack trace:\n#0 /home/stepan/public/cats/vendor/composer/ClassLoader.php(322): Composer\\Autoload\\includeFile('/home/stepan/pu...')\n#1 [internal function]: Composer\\Autoload\\ClassLoader->loadClass('App\\\\Controller\\\\...')\n#2 /home/stepan/public/cats/App/Service/Router.php(24): spl_autoload_call('App\\\\Controller\\\\...')\n#3 [internal function]: App\\Service\\Router::App\\Service\\{closure}(Object(Klein\\Request), Object(Klein\\Response), Object(Klein\\ServiceProvider), Object(Klein\\App), Object(Klein\\Klein), Object(Klein\\DataCollection\\RouteCollection), Array)\n#4 /home/stepan/public/cats/vendor/klein/klein/src/Klein/Klein.php(886): call_user_func(Object(Closure), Object(Klein\\Request), Object(Klein\\Response), Object(Klein\\ServiceProvider), Object(Klein\\App), Object(Klein\\Klein), Object(Klein\\DataCollection\\RouteCollection), Array)\n#5 /home/stepan/public/cats/vendor/klein/klein/src/Klein/Klein.php(588): Klein\\K in /home/stepan/public/cats/vendor/klein/klein/src/Klein/Klein.php on line 954, referer: http://cats.loc/
[Sun Dec 01 22:59:12.788627 2019] [php7:error] [pid 7347] [client 127.0.0.1:40378] PHP Fatal error:  Uncaught ParseError: syntax error, unexpected end of file in /home/stepan/public/cats/App/Controller/Cats.php:41\nStack trace:\n#0 /home/stepan/public/cats/vendor/composer/ClassLoader.php(322): Composer\\Autoload\\includeFile('/home/stepan/pu...')\n#1 [internal function]: Composer\\Autoload\\ClassLoader->loadClass('App\\\\Controller\\\\...')\n#2 /home/stepan/public/cats/App/Service/Router.php(24): spl_autoload_call('App\\\\Controller\\\\...')\n#3 [internal function]: App\\Service\\Router::App\\Service\\{closure}(Object(Klein\\Request), Object(Klein\\Response), Object(Klein\\ServiceProvider), Object(Klein\\App), Object(Klein\\Klein), Object(Klein\\DataCollection\\RouteCollection), Array)\n#4 /home/stepan/public/cats/vendor/klein/klein/src/Klein/Klein.php(886): call_user_func(Object(Closure), Object(Klein\\Request), Object(Klein\\Response), Object(Klein\\ServiceProvider), Object(Klein\\App), Object(Klein\\Klein), Object(Klein\\DataCollection\\RouteCollection), Array)\n#5 /home/stepan/public/cats/vendor/klein/klein/src/Klein/Klein.php(588): Klein\\K in /home/stepan/public/cats/vendor/klein/klein/src/Klein/Klein.php on line 954, referer: http://cats.loc/
[Sun Dec 01 22:59:17.699252 2019] [php7:error] [pid 7347] [client 127.0.0.1:40378] PHP Fatal error:  Uncaught ParseError: syntax error, unexpected end of file in /home/stepan/public/cats/App/Controller/Cats.php:41\nStack trace:\n#0 /home/stepan/public/cats/vendor/composer/ClassLoader.php(322): Composer\\Autoload\\includeFile('/home/stepan/pu...')\n#1 [internal function]: Composer\\Autoload\\ClassLoader->loadClass('App\\\\Controller\\\\...')\n#2 /home/stepan/public/cats/App/Service/Router.php(24): spl_autoload_call('App\\\\Controller\\\\...')\n#3 [internal function]: App\\Service\\Router::App\\Service\\{closure}(Object(Klein\\Request), Object(Klein\\Response), Object(Klein\\ServiceProvider), Object(Klein\\App), Object(Klein\\Klein), Object(Klein\\DataCollection\\RouteCollection), Array)\n#4 /home/stepan/public/cats/vendor/klein/klein/src/Klein/Klein.php(886): call_user_func(Object(Closure), Object(Klein\\Request), Object(Klein\\Response), Object(Klein\\ServiceProvider), Object(Klein\\App), Object(Klein\\Klein), Object(Klein\\DataCollection\\RouteCollection), Array)\n#5 /home/stepan/public/cats/vendor/klein/klein/src/Klein/Klein.php(588): Klein\\K in /home/stepan/public/cats/vendor/klein/klein/src/Klein/Klein.php on line 954, referer: http://cats.loc/
[Sun Dec 01 23:02:12.106020 2019] [php7:error] [pid 1136] [client 127.0.0.1:40384] PHP Fatal error:  Uncaught ParseError: syntax error, unexpected end of file in /home/stepan/public/cats/App/Controller/Cats.php:40\nStack trace:\n#0 /home/stepan/public/cats/vendor/composer/ClassLoader.php(322): Composer\\Autoload\\includeFile('/home/stepan/pu...')\n#1 [internal function]: Composer\\Autoload\\ClassLoader->loadClass('App\\\\Controller\\\\...')\n#2 /home/stepan/public/cats/App/Service/Router.php(24): spl_autoload_call('App\\\\Controller\\\\...')\n#3 [internal function]: App\\Service\\Router::App\\Service\\{closure}(Object(Klein\\Request), Object(Klein\\Response), Object(Klein\\ServiceProvider), Object(Klein\\App), Object(Klein\\Klein), Object(Klein\\DataCollection\\RouteCollection), Array)\n#4 /home/stepan/public/cats/vendor/klein/klein/src/Klein/Klein.php(886): call_user_func(Object(Closure), Object(Klein\\Request), Object(Klein\\Response), Object(Klein\\ServiceProvider), Object(Klein\\App), Object(Klein\\Klein), Object(Klein\\DataCollection\\RouteCollection), Array)\n#5 /home/stepan/public/cats/vendor/klein/klein/src/Klein/Klein.php(588): Klein\\K in /home/stepan/public/cats/vendor/klein/klein/src/Klein/Klein.php on line 954, referer: http://cats.loc/
[Sun Dec 01 23:02:22.842808 2019] [php7:error] [pid 7351] [client 127.0.0.1:40386] PHP Fatal error:  Uncaught ParseError: syntax error, unexpected end of file in /home/stepan/public/cats/App/Controller/Cats.php:40\nStack trace:\n#0 /home/stepan/public/cats/vendor/composer/ClassLoader.php(322): Composer\\Autoload\\includeFile('/home/stepan/pu...')\n#1 [internal function]: Composer\\Autoload\\ClassLoader->loadClass('App\\\\Controller\\\\...')\n#2 /home/stepan/public/cats/App/Service/Router.php(24): spl_autoload_call('App\\\\Controller\\\\...')\n#3 [internal function]: App\\Service\\Router::App\\Service\\{closure}(Object(Klein\\Request), Object(Klein\\Response), Object(Klein\\ServiceProvider), Object(Klein\\App), Object(Klein\\Klein), Object(Klein\\DataCollection\\RouteCollection), Array)\n#4 /home/stepan/public/cats/vendor/klein/klein/src/Klein/Klein.php(886): call_user_func(Object(Closure), Object(Klein\\Request), Object(Klein\\Response), Object(Klein\\ServiceProvider), Object(Klein\\App), Object(Klein\\Klein), Object(Klein\\DataCollection\\RouteCollection), Array)\n#5 /home/stepan/public/cats/vendor/klein/klein/src/Klein/Klein.php(588): Klein\\K in /home/stepan/public/cats/vendor/klein/klein/src/Klein/Klein.php on line 954, referer: http://cats.loc/
[Sun Dec 01 23:04:11.886060 2019] [php7:error] [pid 1134] [client 127.0.0.1:40390] PHP Fatal error:  Uncaught ParseError: syntax error, unexpected end of file in /home/stepan/public/cats/App/Controller/Cats.php:40\nStack trace:\n#0 /home/stepan/public/cats/vendor/composer/ClassLoader.php(322): Composer\\Autoload\\includeFile('/home/stepan/pu...')\n#1 [internal function]: Composer\\Autoload\\ClassLoader->loadClass('App\\\\Controller\\\\...')\n#2 /home/stepan/public/cats/App/Service/Router.php(24): spl_autoload_call('App\\\\Controller\\\\...')\n#3 [internal function]: App\\Service\\Router::App\\Service\\{closure}(Object(Klein\\Request), Object(Klein\\Response), Object(Klein\\ServiceProvider), Object(Klein\\App), Object(Klein\\Klein), Object(Klein\\DataCollection\\RouteCollection), Array)\n#4 /home/stepan/public/cats/vendor/klein/klein/src/Klein/Klein.php(886): call_user_func(Object(Closure), Object(Klein\\Request), Object(Klein\\Response), Object(Klein\\ServiceProvider), Object(Klein\\App), Object(Klein\\Klein), Object(Klein\\DataCollection\\RouteCollection), Array)\n#5 /home/stepan/public/cats/vendor/klein/klein/src/Klein/Klein.php(588): Klein\\K in /home/stepan/public/cats/vendor/klein/klein/src/Klein/Klein.php on line 954, referer: http://cats.loc/
[Sun Dec 01 23:19:59.578407 2019] [php7:error] [pid 1134] [client 127.0.0.1:40498] PHP Fatal error:  Uncaught ParseError: syntax error, unexpected end of file in /home/stepan/public/cats/App/Controller/Cats.php:52\nStack trace:\n#0 /home/stepan/public/cats/vendor/composer/ClassLoader.php(322): Composer\\Autoload\\includeFile('/home/stepan/pu...')\n#1 [internal function]: Composer\\Autoload\\ClassLoader->loadClass('App\\\\Controller\\\\...')\n#2 /home/stepan/public/cats/App/Service/Router.php(24): spl_autoload_call('App\\\\Controller\\\\...')\n#3 [internal function]: App\\Service\\Router::App\\Service\\{closure}(Object(Klein\\Request), Object(Klein\\Response), Object(Klein\\ServiceProvider), Object(Klein\\App), Object(Klein\\Klein), Object(Klein\\DataCollection\\RouteCollection), Array)\n#4 /home/stepan/public/cats/vendor/klein/klein/src/Klein/Klein.php(886): call_user_func(Object(Closure), Object(Klein\\Request), Object(Klein\\Response), Object(Klein\\ServiceProvider), Object(Klein\\App), Object(Klein\\Klein), Object(Klein\\DataCollection\\RouteCollection), Array)\n#5 /home/stepan/public/cats/vendor/klein/klein/src/Klein/Klein.php(588): Klein\\K in /home/stepan/public/cats/vendor/klein/klein/src/Klein/Klein.php on line 954, referer: http://cats.loc/
[Sun Dec 01 23:37:10.285907 2019] [php7:error] [pid 7351] [client 127.0.0.1:40686] PHP Fatal error:  Uncaught ParseError: syntax error, unexpected '}', expecting end of file in /home/stepan/public/cats/App/Controller/HouseCats.php:46\nStack trace:\n#0 /home/stepan/public/cats/vendor/composer/ClassLoader.php(322): Composer\\Autoload\\includeFile('/home/stepan/pu...')\n#1 [internal function]: Composer\\Autoload\\ClassLoader->loadClass('App\\\\Controller\\\\...')\n#2 /home/stepan/public/cats/App/Service/Router.php(29): spl_autoload_call('App\\\\Controller\\\\...')\n#3 [internal function]: App\\Service\\Router::App\\Service\\{closure}(Object(Klein\\Request), Object(Klein\\Response), Object(Klein\\ServiceProvider), Object(Klein\\App), Object(Klein\\Klein), Object(Klein\\DataCollection\\RouteCollection), Array)\n#4 /home/stepan/public/cats/vendor/klein/klein/src/Klein/Klein.php(886): call_user_func(Object(Closure), Object(Klein\\Request), Object(Klein\\Response), Object(Klein\\ServiceProvider), Object(Klein\\App), Object(Klein\\Klein), Object(Klein\\DataCollection\\RouteCollection), Array)\n#5 /home/stepan/public/cats/vendor/klein/klein/src/Klein/Kle in /home/stepan/public/cats/vendor/klein/klein/src/Klein/Klein.php on line 954, referer: http://cats.loc/
